<?xml version="1.0" encoding="utf-8"?>
<!-- Generator: Adobe Illustrator 23.0.1, SVG Export Plug-In . SVG Version: 6.00 Build 0)  -->
<svg version="1.1" id="Layer_1" xmlns="http://www.w3.org/2000/svg" xmlns:xlink="http://www.w3.org/1999/xlink" x="0px" y="0px"
	 viewBox="0 0 25 18" style="enable-background:new 0 0 25 18;" xml:space="preserve">
<style type="text/css">
	.st0{fill:#F9F9F9;}
	.st1{fill:none;stroke:#969696;stroke-width:1.1668;stroke-linecap:round;stroke-linejoin:round;}
</style>
<g>
	<rect class="st0" width="25" height="18"/>
</g>
<g>
	<g>
		<path class="st1" d="M14.21,15.55c-0.86,0-1.7-0.17-2.53-0.47"/>
		<path class="st1" d="M23.18,9.44c-1.91,3.27-5.44,6.11-8.97,6.11"/>
		<path class="st1" d="M21.36,6.11c0.7,0.75,1.32,1.58,1.82,2.44c0.16,0.27,0.16,0.6,0,0.87"/>
		<line class="st1" x1="7.15" y1="15.55" x2="21.27" y2="2.44"/>
		<path class="st1" d="M11.96,11.08c-1.25-1.16-1.25-3.02,0-4.17c1.25-1.16,3.26-1.16,4.5,0"/>
		<path class="st1" d="M19.3,4.27c-1.56-1.12-3.32-1.83-5.09-1.83c-3.53,0-7.06,2.84-8.97,6.11c-0.16,0.27-0.16,0.6,0,0.87
			c0.96,1.64,2.31,3.17,3.88,4.28"/>
	</g>
</g>
</svg>
