<?xml version="1.0" encoding="utf-8"?>
<!-- Generator: Adobe Illustrator 23.0.1, SVG Export Plug-In . SVG Version: 6.00 Build 0)  -->
<svg version="1.1" id="Layer_1" xmlns="http://www.w3.org/2000/svg" xmlns:xlink="http://www.w3.org/1999/xlink" x="0px" y="0px"
	 viewBox="0 0 25 18" style="enable-background:new 0 0 25 18;" xml:space="preserve">
<style type="text/css">
	.st0{fill:#F9F9F9;}
	.st1{fill:none;stroke:#969696;stroke-width:1.0084;stroke-linecap:round;stroke-linejoin:round;}
</style>
<g>
	<rect class="st0" width="25" height="18"/>
</g>
<g>
	<path class="st1" d="M16.8,10.8c-1.25,1.25-3.27,1.25-4.52,0s-1.25-3.27,0-4.52s3.27-1.25,4.52,0S18.05,9.55,16.8,10.8z"/>
	<path class="st1" d="M18.6,12.6l-1.8-1.8L18.6,12.6z"/>
	<path class="st1" d="M23,9c0,4.42-3.58,8-8,8s-8-3.58-8-8s3.58-8,8-8S23,4.58,23,9z"/>
</g>
</svg>
